<svg width="25" height="25" viewBox="0 0 25 25" fill="none" xmlns="http://www.w3.org/2000/svg">
<g opacity="0.5">
<path d="M12.5 0C5.60742 0 0 5.60742 0 12.5C0 19.3926 5.60742 25 12.5 25C19.3926 25 25 19.3926 25 12.5C25 5.60742 19.3926 0 12.5 0ZM12.5 23.2143C6.59194 23.2143 1.78569 18.4081 1.78569 12.5C1.78569 6.59194 6.59194 1.78569 12.5 1.78569C18.4081 1.78569 23.2143 6.59194 23.2143 12.5C23.2143 18.4081 18.4081 23.2143 12.5 23.2143Z" fill=""/>
<path d="M12.4999 6.54761C12.0068 6.54761 11.6071 6.94731 11.6071 7.44048V17.5595C11.6071 18.0527 12.0068 18.4524 12.4999 18.4524C12.9931 18.4524 13.3928 18.0527 13.3928 17.5595V7.44048C13.3928 6.94731 12.9931 6.54761 12.4999 6.54761Z" fill=""/>
<path d="M17.5595 11.6072H7.44048C6.94731 11.6072 6.54761 12.0069 6.54761 12.5C6.54761 12.9932 6.94731 13.3929 7.44048 13.3929H17.5595C18.0527 13.3929 18.4524 12.9932 18.4524 12.5C18.4524 12.0069 18.0527 11.6072 17.5595 11.6072Z" fill=""/>
</g>
</svg>
