<svg width="24" height="24" viewBox="0 0 24 24" fill="none" xmlns="http://www.w3.org/2000/svg">
<path d="M10 13.2501C10.4142 13.2501 10.75 13.5859 10.75 14.0001V16.0001C10.75 16.4143 10.4142 16.7501 10 16.7501C9.58579 16.7501 9.25 16.4143 9.25 16.0001V14.0001C9.25 13.5859 9.58579 13.2501 10 13.2501Z" fill=""/>
<path d="M14.75 14.0001C14.75 13.5859 14.4142 13.2501 14 13.2501C13.5858 13.2501 13.25 13.5859 13.25 14.0001V16.0001C13.25 16.4143 13.5858 16.7501 14 16.7501C14.4142 16.7501 14.75 16.4143 14.75 16.0001V14.0001Z" fill=""/>
<path fill-rule="evenodd" clip-rule="evenodd" d="M9.64952 3.37513C9.85662 3.01641 9.73372 2.55771 9.375 2.35061C9.01628 2.1435 8.55759 2.26641 8.35048 2.62513L6.35048 6.08923C6.32052 6.14112 6.29746 6.19511 6.28103 6.25013H6C4.48122 6.25013 3.25 7.48134 3.25 9.00013C3.25 9.85925 3.64397 10.6264 4.26109 11.1307L4.92803 15.7154L5.37478 17.8085C5.64244 19.0626 6.66623 20.0152 7.93636 20.1919C10.6325 20.5671 13.3675 20.5671 16.0636 20.1919C17.3338 20.0152 18.3576 19.0626 18.6252 17.8085L19.072 15.7154L19.7389 11.1307C20.356 10.6264 20.75 9.85925 20.75 9.00013C20.75 7.48134 19.5188 6.25013 18 6.25013H17.719C17.7025 6.19511 17.6795 6.14112 17.6495 6.08923L15.6495 2.62513C15.4424 2.26641 14.9837 2.1435 14.625 2.35061C14.2663 2.55771 14.1434 3.01641 14.3505 3.37513L16.0104 6.25013H7.98963L9.64952 3.37513ZM18.1335 11.7469C18.0892 11.7491 18.0447 11.7501 18 11.7501H6C5.95525 11.7501 5.91076 11.7491 5.86653 11.7469L6.4053 15.4506L6.84174 17.4954C6.97772 18.1325 7.49783 18.6165 8.14308 18.7062C10.702 19.0623 13.298 19.0623 15.8569 18.7062C16.5022 18.6165 17.0223 18.1325 17.1583 17.4954L17.5947 15.4506L18.1335 11.7469ZM4.75 9.00013C4.75 8.30977 5.30964 7.75013 6 7.75013H18C18.6904 7.75013 19.25 8.30977 19.25 9.00013C19.25 9.69048 18.6904 10.2501 18 10.2501H6C5.30964 10.2501 4.75 9.69048 4.75 9.00013Z" fill=""/>
</svg>
